%YAML 1.1
%TAG !u! tag:unity3d.com,2011:
--- !u!162 &1
EditorUserSettings:
  m_ObjectHideFlags: 0
  serializedVersion: 4
  m_ConfigSettings:
    RecentlyUsedSceneGuid-0:
      value: 0753550404015c5a580c0d7447770649154f4f7e7b7f71692f2d4b35b0b2373e
      flags: 0
    RecentlyUsedSceneGuid-1:
      value: 5506065300540d0a590b54721677064946164f2c7d2e723129794a36e3e4373d
      flags: 0
    RecentlyUsedSceneGuid-2:
      value: 5706075555075b5a0b56547a44250c4440154a2c7b7122342f7a4562e1b76d6e
      flags: 0
    RecentlyUsedSceneGuid-3:
      value: 570156540050580c0f57552749770e4412164f2b292e24677b701e32e6e46d6c
      flags: 0
    RecentlyUsedSceneGuid-4:
      value: 0000065456515c0d0b5d5e704325074413164b28782c71667e7b4964b2e56461
      flags: 0
    RecentlyUsedSceneGuid-5:
      value: 5a5757560101590a5d0c0e24427b5d44434e4c7a7b7a23677f2b4565b7b5353a
      flags: 0
    RecentlyUsedSceneGuid-6:
      value: 5507075450575c08095e5e7a49770b4442154a782f707561792c4d6be0b3666d
      flags: 0
    RecentlyUsedSceneGuid-7:
      value: 56080d00575451080c56097243260744464f4a727e7873687d7f4937b3e4353e
      flags: 0
    RecentlyUsedSceneGuid-8:
      value: 5507040250570d095c0c5b7742740f44104e407a7d7b75642f2a1964b2b8636f
      flags: 0
    RecentlyUsedSceneGuid-9:
      value: 5a0101545c0d0d5a095e5e2340720f4414151c2c2f2c70367e71486ab7e4376a
      flags: 0
    vcSharedLogLevel:
      value: 0d5e400f0650
      flags: 0
  m_VCAutomaticAdd: 1
  m_VCDebugCom: 0
  m_VCDebugCmd: 0
  m_VCDebugOut: 0
  m_SemanticMergeMode: 2
  m_DesiredImportWorkerCount: 3
  m_StandbyImportWorkerCount: 2
  m_IdleImportWorkerShutdownDelay: 60000
  m_VCShowFailedCheckout: 1
  m_VCOverwriteFailedCheckoutAssets: 1
  m_VCProjectOverlayIcons: 1
  m_VCHierarchyOverlayIcons: 1
  m_VCOtherOverlayIcons: 1
  m_VCAllowAsyncUpdate: 1
  m_ArtifactGarbageCollection: 1
